<?xml version="1.0" encoding="UTF-8" standalone="no"?>
<!-- Created with Inkscape (http://www.inkscape.org/) -->

<svg
   xmlns:dc="http://purl.org/dc/elements/1.1/"
   xmlns:cc="http://creativecommons.org/ns#"
   xmlns:rdf="http://www.w3.org/1999/02/22-rdf-syntax-ns#"
   xmlns:svg="http://www.w3.org/2000/svg"
   xmlns="http://www.w3.org/2000/svg"
   xmlns:sodipodi="http://sodipodi.sourceforge.net/DTD/sodipodi-0.dtd"
   xmlns:inkscape="http://www.inkscape.org/namespaces/inkscape"
   width="210mm"
   height="297mm"
   viewBox="0 0 744.09448819 1052.3622047"
   id="svg2"
   version="1.1"
   inkscape:version="0.91 r13725"
   sodipodi:docname="pokedex_scope_preview_mock_up.svg">
  <defs
     id="defs4">
    <pattern
       inkscape:stockid="Checkerboard"
       id="Checkerboard"
       patternTransform="translate(0,0) scale(10,10)"
       height="2"
       width="2"
       patternUnits="userSpaceOnUse"
       inkscape:collect="always">
      <rect
         id="rect4940"
         height="1"
         width="1"
         y="0"
         x="0"
         style="fill:black;stroke:none" />
      <rect
         id="rect4942"
         height="1"
         width="1"
         y="1"
         x="1"
         style="fill:black;stroke:none" />
    </pattern>
  </defs>
  <sodipodi:namedview
     id="base"
     pagecolor="#ffffff"
     bordercolor="#666666"
     borderopacity="1.0"
     inkscape:pageopacity="0.0"
     inkscape:pageshadow="2"
     inkscape:zoom="0.7"
     inkscape:cx="122.14286"
     inkscape:cy="-234.28571"
     inkscape:document-units="px"
     inkscape:current-layer="layer1"
     showgrid="false"
     showguides="true"
     inkscape:guide-bbox="true"
     inkscape:window-width="1920"
     inkscape:window-height="1018"
     inkscape:window-x="-8"
     inkscape:window-y="-8"
     inkscape:window-maximized="1">
    <sodipodi:guide
       position="62.857143,182.85715"
       orientation="1,0"
       id="guide5670" />
    <sodipodi:guide
       position="114.28572,-462.85715"
       orientation="1,0"
       id="guide5883" />
    <sodipodi:guide
       position="482.85715,-555.7143"
       orientation="0,1"
       id="guide6003" />
    <sodipodi:guide
       position="497.14286,-605.7143"
       orientation="1,0"
       id="guide6005" />
  </sodipodi:namedview>
  <metadata
     id="metadata7">
    <rdf:RDF>
      <cc:Work
         rdf:about="">
        <dc:format>image/svg+xml</dc:format>
        <dc:type
           rdf:resource="http://purl.org/dc/dcmitype/StillImage" />
        <dc:title></dc:title>
      </cc:Work>
    </rdf:RDF>
  </metadata>
  <g
     inkscape:label="Layer 1"
     inkscape:groupmode="layer"
     id="layer1">
    <flowRoot
       xml:space="preserve"
       id="flowRoot4136"
       style="font-style:normal;font-weight:normal;font-size:40px;line-height:125%;font-family:Sans;letter-spacing:0px;word-spacing:0px;fill:#000000;fill-opacity:1;stroke:none;stroke-width:1px;stroke-linecap:butt;stroke-linejoin:miter;stroke-opacity:1"><flowRegion
         id="flowRegion4138"><rect
           id="rect4140"
           width="472.85715"
           height="108.57143"
           x="52.857143"
           y="45.219349" /></flowRegion><flowPara
         id="flowPara4142">DEX# : Name</flowPara></flowRoot>    <rect
       style="fill:url(#Checkerboard);fill-opacity:1;fill-rule:nonzero;stroke:#421b00;stroke-width:0.40000001;stroke-linejoin:round;stroke-miterlimit:4;stroke-dasharray:1.20000002, 1.20000002;stroke-dashoffset:1.20000005;stroke-opacity:1"
       id="rect4144"
       width="745.81476"
       height="528.57141"
       x="-2.2212841e-006"
       y="116.64793"
       ry="0.107505" />
    <flowRoot
       xml:space="preserve"
       id="flowRoot5590"
       style="fill:black;stroke:none;stroke-opacity:1;stroke-width:1px;stroke-linejoin:miter;stroke-linecap:butt;fill-opacity:1;font-family:Sans;font-style:normal;font-weight:normal;font-size:40px;line-height:125%;letter-spacing:0px;word-spacing:0px"><flowRegion
         id="flowRegion5592"><rect
           id="rect5594"
           width="675.71429"
           height="154.28572"
           x="37.142857"
           y="679.50507" /></flowRegion><flowPara
         id="flowPara5596"></flowPara></flowRoot>    <flowRoot
       xml:space="preserve"
       id="flowRoot5598"
       style="fill:black;stroke:none;stroke-opacity:1;stroke-width:1px;stroke-linejoin:miter;stroke-linecap:butt;fill-opacity:1;font-family:Sans;font-style:normal;font-weight:normal;font-size:30px;line-height:125%;letter-spacing:0px;word-spacing:0px;"><flowRegion
         id="flowRegion5600"><rect
           id="rect5602"
           width="675.71429"
           height="177.14285"
           x="35.714287"
           y="678.07648"
           style="font-size:30px;" /></flowRegion><flowPara
         id="flowPara5604"></flowPara></flowRoot>    <text
       xml:space="preserve"
       style="font-style:normal;font-weight:normal;font-size:30px;line-height:125%;font-family:Sans;letter-spacing:0px;word-spacing:0px;fill:#000000;fill-opacity:1;stroke:none;stroke-width:1px;stroke-linecap:butt;stroke-linejoin:miter;stroke-opacity:1"
       x="61.42857"
       y="682.36218"
       id="text5606"
       sodipodi:linespacing="125%"><tspan
         sodipodi:role="line"
         x="61.42857"
         y="682.36218"
         id="tspan5610"
         style="font-size:20px">A description of the pokemon taken from the wiki will go here</tspan><tspan
         sodipodi:role="line"
         x="61.42857"
         y="707.36218"
         style="font-size:20px"
         id="tspan5614">detailing the type, biology, evolution family and forms of the </tspan><tspan
         sodipodi:role="line"
         x="61.42857"
         y="732.36218"
         style="font-size:20px"
         id="tspan5616">pokemon.</tspan></text>
    <text
       xml:space="preserve"
       style="font-style:normal;font-weight:normal;font-size:30px;line-height:125%;font-family:Sans;letter-spacing:0px;word-spacing:0px;fill:#000000;fill-opacity:1;stroke:none;stroke-width:1px;stroke-linecap:butt;stroke-linejoin:miter;stroke-opacity:1"
       x="61.42857"
       y="779.50507"
       id="text5618"
       sodipodi:linespacing="125%"><tspan
         sodipodi:role="line"
         id="tspan5620"
         x="61.42857"
         y="779.50507">Details &gt;</tspan></text>
    <text
       xml:space="preserve"
       style="font-style:normal;font-weight:normal;font-size:20px;line-height:125%;font-family:Sans;letter-spacing:0px;word-spacing:0px;fill:#000000;fill-opacity:1;stroke:none;stroke-width:1px;stroke-linecap:butt;stroke-linejoin:miter;stroke-opacity:1"
       x="111.42857"
       y="808.07648"
       id="text5622"
       sodipodi:linespacing="125%"><tspan
         sodipodi:role="line"
         id="tspan5624"
         x="111.42857"
         y="808.07648">Type : Type</tspan><tspan
         sodipodi:role="line"
         x="111.42857"
         y="833.07648"
         id="tspan5626">Ability : Ability</tspan><tspan
         sodipodi:role="line"
         x="111.42857"
         y="858.07648"
         id="tspan5628">Height : 0.0m</tspan><tspan
         sodipodi:role="line"
         x="111.42857"
         y="883.07648"
         id="tspan5630">Weight : 0.0kg</tspan><tspan
         sodipodi:role="line"
         x="111.42857"
         y="908.07648"
         id="tspan5632">Egg Groups : Egg Groups</tspan></text>
    <text
       xml:space="preserve"
       style="font-style:normal;font-weight:normal;font-size:30px;line-height:125%;font-family:Sans;letter-spacing:0px;word-spacing:0px;fill:#000000;fill-opacity:1;stroke:none;stroke-width:1px;stroke-linecap:butt;stroke-linejoin:miter;stroke-opacity:1"
       x="60.28669"
       y="951.6933"
       id="text5618-6"
       sodipodi:linespacing="125%"><tspan
         sodipodi:role="line"
         id="tspan5620-0"
         x="60.28669"
         y="951.6933">Pokedex Entries &gt;</tspan></text>
    <text
       xml:space="preserve"
       style="font-style:normal;font-weight:normal;font-size:20px;line-height:125%;font-family:Sans;letter-spacing:0px;word-spacing:0px;fill:#000000;fill-opacity:1;stroke:none;stroke-width:1px;stroke-linecap:butt;stroke-linejoin:miter;stroke-opacity:1"
       x="110.28669"
       y="980.26471"
       id="text5622-7"
       sodipodi:linespacing="125%"><tspan
         sodipodi:role="line"
         x="110.28669"
         y="980.26471"
         id="tspan5632-8">Red : afasjfgasfk</tspan><tspan
         sodipodi:role="line"
         x="110.28669"
         y="1005.2647"
         id="tspan5686">Blue : askfaksfhkasj&quot;</tspan><tspan
         sodipodi:role="line"
         x="110.28669"
         y="1030.2646"
         id="tspan5688">Yellow : lhiryhbcise</tspan></text>
    <text
       xml:space="preserve"
       style="font-style:normal;font-weight:normal;font-size:30px;line-height:125%;font-family:Sans;letter-spacing:0px;word-spacing:0px;fill:#000000;fill-opacity:1;stroke:none;stroke-width:1px;stroke-linecap:butt;stroke-linejoin:miter;stroke-opacity:1"
       x="61.359512"
       y="1078.1755"
       id="text5618-6-3"
       sodipodi:linespacing="125%"><tspan
         sodipodi:role="line"
         id="tspan5620-0-7"
         x="61.359512"
         y="1078.1755">Locations &gt;</tspan></text>
    <text
       xml:space="preserve"
       style="font-style:normal;font-weight:normal;font-size:20px;line-height:125%;font-family:Sans;letter-spacing:0px;word-spacing:0px;fill:#000000;fill-opacity:1;stroke:none;stroke-width:1px;stroke-linecap:butt;stroke-linejoin:miter;stroke-opacity:1"
       x="111.35951"
       y="1106.7469"
       id="text5622-7-6"
       sodipodi:linespacing="125%"><tspan
         sodipodi:role="line"
         x="111.35951"
         y="1106.7469"
         id="tspan5632-8-7">Red : Pallet Town</tspan><tspan
         sodipodi:role="line"
         x="111.35951"
         y="1131.7469"
         id="tspan5686-3">Blue : Veridian City</tspan><tspan
         sodipodi:role="line"
         x="111.35951"
         y="1156.7469"
         id="tspan5688-3">Yellow : Route 02</tspan></text>
    <text
       xml:space="preserve"
       style="font-style:normal;font-weight:normal;font-size:30px;line-height:125%;font-family:Sans;letter-spacing:0px;word-spacing:0px;fill:#000000;fill-opacity:1;stroke:none;stroke-width:1px;stroke-linecap:butt;stroke-linejoin:miter;stroke-opacity:1"
       x="62.476982"
       y="1202.4756"
       id="text5618-6-3-7"
       sodipodi:linespacing="125%"><tspan
         sodipodi:role="line"
         id="tspan5620-0-7-3"
         x="62.476982"
         y="1202.4756">Base Stats &gt;</tspan></text>
    <text
       xml:space="preserve"
       style="font-style:normal;font-weight:normal;font-size:20px;line-height:125%;font-family:Sans;letter-spacing:0px;word-spacing:0px;fill:#000000;fill-opacity:1;stroke:none;stroke-width:1px;stroke-linecap:butt;stroke-linejoin:miter;stroke-opacity:1"
       x="112.47698"
       y="1231.047"
       id="text5622-7-6-5"
       sodipodi:linespacing="125%"><tspan
         sodipodi:role="line"
         x="112.47698"
         y="1231.047"
         id="tspan5688-3-6">HP : 70</tspan><tspan
         sodipodi:role="line"
         x="112.47698"
         y="1256.047"
         id="tspan5755">Attack : 70</tspan><tspan
         sodipodi:role="line"
         x="112.47698"
         y="1281.047"
         id="tspan5757">Defense : 70</tspan><tspan
         sodipodi:role="line"
         x="112.47698"
         y="1306.047"
         id="tspan5759">Special Attack : 70</tspan><tspan
         sodipodi:role="line"
         x="112.47698"
         y="1331.047"
         id="tspan5761">Special Defense : 70</tspan><tspan
         sodipodi:role="line"
         x="112.47698"
         y="1356.047"
         id="tspan5763">Speed : 70</tspan></text>
    <text
       xml:space="preserve"
       style="font-style:normal;font-weight:normal;font-size:30px;line-height:125%;font-family:Sans;letter-spacing:0px;word-spacing:0px;fill:#000000;fill-opacity:1;stroke:none;stroke-width:1px;stroke-linecap:butt;stroke-linejoin:miter;stroke-opacity:1"
       x="61.472519"
       y="1400.3827"
       id="text5618-6-3-7-9"
       sodipodi:linespacing="125%"><tspan
         sodipodi:role="line"
         id="tspan5620-0-7-3-9"
         x="61.472519"
         y="1400.3827">Attacks &gt;</tspan></text>
    <text
       xml:space="preserve"
       style="font-style:normal;font-weight:normal;font-size:20px;line-height:125%;font-family:Sans;letter-spacing:0px;word-spacing:0px;fill:#000000;fill-opacity:1;stroke:none;stroke-width:1px;stroke-linecap:butt;stroke-linejoin:miter;stroke-opacity:1"
       x="112.90108"
       y="1436.0968"
       id="text5622-7-6-5-2"
       sodipodi:linespacing="125%"><tspan
         sodipodi:role="line"
         x="112.90108"
         y="1436.0968"
         id="tspan5763-7">Lv 10 : Leech Seed : Grass</tspan><tspan
         sodipodi:role="line"
         x="112.90108"
         y="1461.0968"
         id="tspan5921">TM 10 : Hidden Power : Normal</tspan></text>
    <flowRoot
       xml:space="preserve"
       id="flowRoot5843"
       style="fill:black;stroke:none;stroke-opacity:1;stroke-width:1px;stroke-linejoin:miter;stroke-linecap:butt;fill-opacity:1;font-family:Sans;font-style:normal;font-weight:normal;font-size:20px;line-height:125%;letter-spacing:0px;word-spacing:0px"><flowRegion
         id="flowRegion5845"><rect
           id="rect5847"
           width="108.57143"
           height="107.14286"
           x="150"
           y="1473.7908" /></flowRegion><flowPara
         id="flowPara5849"></flowPara></flowRoot>    <g
       id="g5933"
       transform="translate(-2.8571428,94.285714)">
      <rect
         ry="12.964648"
         y="1513.7908"
         x="500"
         height="55.714287"
         width="231.42857"
         id="rect5923"
         style="fill:#dd4814;fill-opacity:1;fill-rule:nonzero;stroke:#421b00;stroke-width:0.40000001;stroke-linejoin:round;stroke-miterlimit:4;stroke-dasharray:1.20000002, 1.20000002;stroke-dashoffset:1.20000005;stroke-opacity:1" />
      <flowRoot
         transform="translate(0,2.8571429)"
         style="font-style:normal;font-weight:normal;font-size:30px;line-height:125%;font-family:Sans;text-align:center;letter-spacing:0px;word-spacing:0px;writing-mode:lr-tb;text-anchor:middle;fill:#f5f5f5;fill-opacity:1;stroke:none;stroke-width:1px;stroke-linecap:butt;stroke-linejoin:miter;stroke-opacity:1"
         id="flowRoot5925"
         xml:space="preserve"><flowRegion
           id="flowRegion5927"><rect
             style="font-size:30px;text-align:center;writing-mode:lr-tb;text-anchor:middle;fill:#f5f5f5;fill-opacity:1"
             y="1513.7908"
             x="501.42856"
             height="57.142857"
             width="231.42857"
             id="rect5929" /></flowRegion><flowPara
           id="flowPara5931">Bulbapedia</flowPara></flowRoot>    </g>
    <text
       xml:space="preserve"
       style="font-style:normal;font-weight:normal;font-size:30px;line-height:125%;font-family:Sans;letter-spacing:0px;word-spacing:0px;fill:#000000;fill-opacity:1;stroke:none;stroke-width:1px;stroke-linecap:butt;stroke-linejoin:miter;stroke-opacity:1"
       x="61.472515"
       y="1508.9541"
       id="text5618-6-3-7-0"
       sodipodi:linespacing="125%"><tspan
         sodipodi:role="line"
         id="tspan5620-0-7-3-2"
         x="61.472515"
         y="1508.9541">Evolution Family &gt;</tspan></text>
    <text
       xml:space="preserve"
       style="font-style:normal;font-weight:normal;font-size:20px;line-height:125%;font-family:Sans;letter-spacing:0px;word-spacing:0px;fill:#000000;fill-opacity:1;stroke:none;stroke-width:1px;stroke-linecap:butt;stroke-linejoin:miter;stroke-opacity:1"
       x="111.47252"
       y="1537.5255"
       id="text5622-7-6-5-3"
       sodipodi:linespacing="125%"><tspan
         sodipodi:role="line"
         x="111.47252"
         y="1537.5255"
         id="tspan5763-79">Before</tspan><tspan
         sodipodi:role="line"
         x="111.47252"
         y="1562.5255"
         id="tspan5999">Current</tspan><tspan
         sodipodi:role="line"
         x="111.47252"
         y="1587.5255"
         id="tspan6001">After</tspan></text>
  </g>
</svg>
