<?xml version="1.0" encoding="UTF-8" standalone="no"?>
<!-- Created with Inkscape (http://www.inkscape.org/) -->

<svg
   xmlns:dc="http://purl.org/dc/elements/1.1/"
   xmlns:cc="http://creativecommons.org/ns#"
   xmlns:rdf="http://www.w3.org/1999/02/22-rdf-syntax-ns#"
   xmlns:svg="http://www.w3.org/2000/svg"
   xmlns="http://www.w3.org/2000/svg"
   xmlns:sodipodi="http://sodipodi.sourceforge.net/DTD/sodipodi-0.dtd"
   xmlns:inkscape="http://www.inkscape.org/namespaces/inkscape"
   width="210mm"
   height="297mm"
   viewBox="0 0 744.09448819 1052.3622047"
   id="svg2"
   version="1.1"
   inkscape:version="0.91 r13725"
   sodipodi:docname="drawing.svg"
   inkscape:export-filename="/home/matthew/Development/pokedex-scope/src/data/icon.png"
   inkscape:export-xdpi="112.14"
   inkscape:export-ydpi="112.14">
  <defs
     id="defs4" />
  <sodipodi:namedview
     id="base"
     pagecolor="#ffffff"
     bordercolor="#666666"
     borderopacity="1.0"
     inkscape:pageopacity="0.0"
     inkscape:pageshadow="2"
     inkscape:zoom="0.7"
     inkscape:cx="362.22948"
     inkscape:cy="610.33672"
     inkscape:document-units="px"
     inkscape:current-layer="layer2"
     showgrid="false"
     showguides="true"
     inkscape:guide-bbox="true"
     inkscape:window-width="1615"
     inkscape:window-height="1026"
     inkscape:window-x="65"
     inkscape:window-y="24"
     inkscape:window-maximized="1">
    <sodipodi:guide
       position="362.64477,645.48749"
       orientation="1,0"
       id="guide4153" />
    <sodipodi:guide
       position="505.07628,648.51795"
       orientation="0,1"
       id="guide4155" />
    <sodipodi:guide
       position="454.56865,853.57892"
       orientation="0,1"
       id="guide4192" />
    <sodipodi:guide
       position="157.5838,621.24383"
       orientation="1,0"
       id="guide4194" />
  </sodipodi:namedview>
  <metadata
     id="metadata7">
    <rdf:RDF>
      <cc:Work
         rdf:about="">
        <dc:format>image/svg+xml</dc:format>
        <dc:type
           rdf:resource="http://purl.org/dc/dcmitype/StillImage" />
      </cc:Work>
    </rdf:RDF>
  </metadata>
  <g
     inkscape:label="Layer 1"
     inkscape:groupmode="layer"
     id="layer1"
     style="display:inline">
    <g
       id="g4215"
       transform="matrix(0.96592583,0.25881904,-0.25881904,0.96592583,116.78051,-80.168176)"
       inkscape:export-xdpi="112.14"
       inkscape:export-ydpi="112.14">
      <g
         id="g4158">
        <path
           style="opacity:0.97000002;fill:#dcdcdc;fill-opacity:1;fill-rule:nonzero;stroke:#000000;stroke-width:5;stroke-linejoin:round;stroke-miterlimit:4;stroke-dasharray:none;stroke-dashoffset:1.20000005;stroke-opacity:1"
           id="path4136"
           sodipodi:type="arc"
           sodipodi:cx="362.85715"
           sodipodi:cy="403.79077"
           sodipodi:rx="202.85715"
           sodipodi:ry="202.85715"
           sodipodi:start="0"
           sodipodi:end="3.1415927"
           d="M 565.71429,403.79077 A 202.85715,202.85715 0 0 1 464.28572,579.47022 202.85715,202.85715 0 0 1 261.42857,579.47021 202.85715,202.85715 0 0 1 160,403.79076 l 202.85715,1e-5 z" />
        <path
           style="fill:#ff0101;fill-opacity:1;fill-rule:nonzero;stroke:#ff0101;stroke-width:5;stroke-linejoin:round;stroke-miterlimit:4;stroke-dasharray:none;stroke-dashoffset:1.20000005;stroke-opacity:1"
           id="path4136-8"
           sodipodi:type="arc"
           sodipodi:cx="-362.86115"
           sodipodi:cy="-403.07709"
           sodipodi:rx="202.85715"
           sodipodi:ry="202.85715"
           sodipodi:start="0"
           sodipodi:end="3.1415927"
           d="m -160.004,-403.07709 a 202.85715,202.85715 0 0 1 -101.42857,175.67945 202.85715,202.85715 0 0 1 -202.85715,-1e-5 202.85715,202.85715 0 0 1 -101.42857,-175.67945 l 202.85714,10e-6 z"
           inkscape:transform-center-x="-2.772795e-05"
           inkscape:transform-center-y="-101.78556"
           transform="scale(-1,-1)" />
        <path
           style="fill:#800000;fill-opacity:1;fill-rule:nonzero;stroke:#800000;stroke-width:5;stroke-linecap:round;stroke-linejoin:round;stroke-miterlimit:4;stroke-dasharray:none;stroke-dashoffset:1.20000005;stroke-opacity:1"
           d="m 351.27344,200.7793 c -31.61426,1.74016 -62.38228,10.85639 -89.8418,26.61914 -62.76336,36.23685 -101.42729,103.20464 -101.42773,175.67773 l 76.26757,0 c 0.11219,-72.65384 24.22121,-139.7228 63.28711,-176.05859 15.85949,-14.65796 33.5023,-23.6093 51.71485,-26.23828 z"
           id="path4207"
           inkscape:connector-curvature="0"
           sodipodi:nodetypes="cccccc" />
      </g>
      <path
         style="fill:#ff0101;fill-opacity:1;fill-rule:nonzero;stroke:#ff0101;stroke-width:5;stroke-linejoin:round;stroke-miterlimit:4;stroke-dasharray:none;stroke-dashoffset:1.20000005;stroke-opacity:1"
         d="m 350.66602,286.26758 -16.94336,67.39062 -55.34961,0 0,21.5586 49.70117,0 -9.8418,39.80468 21.93555,-5.87695 8.56055,-34.24609 44.21484,0 -5.38672,21.54687 21.92188,-5.87304 3.79687,-15.35547 53.51172,0 0.22461,-0.0605 0,-21.49805 -48.08789,0 16.94336,-67.39062 -20.81641,0 -16.94336,67.39062 -43.56836,0 16.94336,-67.39062 -20.8164,0 z"
         transform="matrix(0.96592582,0.25881905,-0.25881905,0.96592582,116.78051,-80.168183)"
         id="path4228"
         inkscape:connector-curvature="0" />
    </g>
  </g>
  <g
     inkscape:groupmode="layer"
     id="layer3"
     inkscape:label="Layer 2"
     style="display:none"
     sodipodi:insensitive="true">
    <text
       xml:space="preserve"
       style="font-style:normal;font-weight:normal;font-size:471.20431519px;line-height:125%;font-family:Sans;letter-spacing:0px;word-spacing:0px;display:inline;fill:#000000;fill-opacity:1;stroke:none;stroke-width:1px;stroke-linecap:butt;stroke-linejoin:miter;stroke-opacity:1"
       x="205.2372"
       y="586.91058"
       id="text4220"
       sodipodi:linespacing="125%"
       transform="scale(1.0844709,0.92210869)"><tspan
         sodipodi:role="line"
         id="tspan4222"
         x="205.2372"
         y="586.91058"
         style="font-style:normal;font-variant:normal;font-weight:bold;font-stretch:normal;font-family:Consolas;-inkscape-font-specification:'Consolas Bold'">#</tspan></text>
  </g>
  <g
     inkscape:groupmode="layer"
     id="layer2"
     inkscape:label="Layer 3"
     style="display:inline">
    <path
       inkscape:connector-curvature="0"
       id="path4789"
       d="m 300.92188,263.90431 -7.98438,66.61719 -46.91016,0 0,38.82421 42.41797,0 -1.92969,16.23633 47.39648,12.71095 3.43946,-28.94728 57.63672,0 -5.2207,43.92969 47.39648,12.71095 6.73047,-56.64064 48.90429,0 0,-38.82421 -44.41406,0 7.98438,-66.61719 -48.9043,0 -7.98437,66.61719 -57.63867,0 7.98437,-66.61719 z"
       style="font-style:normal;font-variant:normal;font-weight:bold;font-stretch:normal;font-size:medium;line-height:125%;font-family:Consolas;-inkscape-font-specification:'Consolas Bold';letter-spacing:0px;word-spacing:0px;fill:#dcdcdc;fill-opacity:1;stroke:none;stroke-width:1px;stroke-linecap:butt;stroke-linejoin:miter;stroke-opacity:1" />
    <path
       inkscape:connector-curvature="0"
       id="path4787"
       d="m 453.00977,430.23635 26.56445,7.125 0,-7.125 z"
       style="font-style:normal;font-variant:normal;font-weight:bold;font-stretch:normal;font-size:medium;line-height:125%;font-family:Consolas;-inkscape-font-specification:'Consolas Bold';letter-spacing:0px;word-spacing:0px;fill:#dcdcdc;fill-opacity:1;stroke:none;stroke-width:1px;stroke-linecap:butt;stroke-linejoin:miter;stroke-opacity:1" />
    <path
       inkscape:connector-curvature="0"
       id="path4746"
       d="m 479.57422,438.3965 -30.42775,-8.16015 -12.48827,0 0.38672,-3.2461 -47.39648,-12.71289 -1.89649,15.95899 -57.63672,0 3.67773,-30.93945 -47.39648,-12.7129 -5.1875,43.65235 -48.40429,0 0,38.82422 43.91406,0 -8.73242,72.13476 48.90429,0 8.48438,-72.13476 57.88672,0 -8.73242,72.13476 48.90429,0 8.48438,-72.13476 47.65625,0 z"
       style="font-style:normal;font-variant:normal;font-weight:bold;font-stretch:normal;font-size:medium;line-height:125%;font-family:Consolas;-inkscape-font-specification:'Consolas Bold';letter-spacing:0px;word-spacing:0px;fill:#646464;fill-opacity:1;stroke:none;stroke-width:1px;stroke-linecap:butt;stroke-linejoin:miter;stroke-opacity:1" />
  </g>
</svg>
